3	3	3	3	3	3	3	3	3	3	3	4	4	4	4	4	4	4	5	5	5	5	5	5	5	5	5	6	7	7	12	12	104	105	110	110	111	112	112	114	115	116	117	117	121	123	142	155	184	186	187	187	189	189	189	200	201	202	202	210	213	213	216	216	221	221	221	221	225	225	225	225	227	227	227	229	229	229	231	231	236	236	240	241	242	248	248	250	271	287	287	287	287	287	287	287	287	287	293	293	293	293	295	295	296	296	297	297	300	300	300	300	300	300	301	301	301	302	302	303	304	304	304	304	305	305	306	307	307	307	307	307	308	311	311	312	312	312	313	313	313	314	314	314	314	315	315	315	315	315
																																																																																																																																																					
3	3	3	3	3	3	3	3	3	4	4	4	4	4	4	4	4	5	5	5	5	5	5	5	5	5	6	7	7	12	12	104	105	110	111	111	112	113	114	115	116	117	117	121	124	144	157	184	184	186	187	187	189	189	189	189	189	200	201	202	202	208	210	211	213	213	216	216	219	221	221	221	221	221	225	225	225	225	225	225	227	227	227	227	229	229	229	229	231	231	236	236	236	237	241	241	242	248	248	250	250	271	271	287	287	287	287	287	287	287	287	287	287	287	293	293	293	293	293	295	295	296	296	296	297	297	300	300	300	300	300	300	300	300	301	301	301	302	302	302	303	304	304	304	304	305	305	306	307	 307]
																																																																																																																																																					
2	2	3	3	3	3	3	3	3	3	3	3	3	4	4	4	4	4	4	4	4	5	5	5	5	5	5	5	5	6	6	7	12	12	20	105	110	110	111	112	112	114	115	116	117	117	121	124	144	157	184	186	187	187	189	189	189	189	199	200	202	202	208	210	213	213	216	216	219	221	221	221	221	225	225	225	225	225	227	227	227	227	229	229	229	231	231	236	236	237	240	241	242	248	248	250	271	271	287	287	287	287	287	287	287	287	287	287	293	293	293	293	294	295	296	296	296	297	297	300	300	300	300	300	300	300	301	301	301	302	302	303	303	304	304	304	305	305	305	307	307	307	307	307	307	308	311	311	312	 312]
																																																																																																																																																					
3	3	3	3	3	3	3	3	3	4	4	4	4	4	4	4	4	5	5	5	5	5	5	5	5	5	6	7	7	12	12	104	105	110	111	111	112	113	114	115	116	117	117	121	124	144	157	184	184	186	187	187	189	189	189	200	201	202	202	210	213	213	216	216	221	221	221	221	225	225	225	225	227	227	227	229	229	229	231	231	236	236	240	241	242	248	248	250	271	287	287	287	287	287	287	287	287	287	293	293	293	293	295	295	296	296	297	297	300	300	300	300	300	300	301	301	301	302	302	303	304	304	304	304	305	305	306	307	307	307	307	307	308	311	311	312	312	312	313	313	313	314	314	314	314	315	315	315	315	315
																																																																																																																																																					
																																																																																																																																																					
3																																																																																																																																																					
3																																																																																																																																																					
3																																																																																																																																																					
3																																																																																																																																																					
3																																																																																																																																																					
3																																																																																																																																																					
3																																																																																																																																																					
3																																																																																																																																																					
3																																																																																																																																																					
4																																																																																																																																																					
4																																																																																																																																																					
4																																																																																																																																																					
4																																																																																																																																																					
4																																																																																																																																																					
4																																																																																																																																																					
4																																																																																																																																																					
4																																																																																																																																																					
5																																																																																																																																																					
5																																																																																																																																																					
5																																																																																																																																																					
5																																																																																																																																																					
5																																																																																																																																																					
5																																																																																																																																																					
5																																																																																																																																																					
5																																																																																																																																																					
5																																																																																																																																																					
6																																																																																																																																																					
7																																																																																																																																																					
7																																																																																																																																																					
12																																																																																																																																																					
12																																																																																																																																																					
104																																																																																																																																																					
105																																																																																																																																																					
110																																																																																																																																																					
111																																																																																																																																																					
111																																																																																																																																																					
112																																																																																																																																																					
113																																																																																																																																																					
114																																																																																																																																																					
115																																																																																																																																																					
116																																																																																																																																																					
117																																																																																																																																																					
117																																																																																																																																																					
121																																																																																																																																																					
124																																																																																																																																																					
144																																																																																																																																																					
157																																																																																																																																																					
184																																																																																																																																																					
184																																																																																																																																																					
186																																																																																																																																																					
187																																																																																																																																																					
187																																																																																																																																																					
189																																																																																																																																																					
189																																																																																																																																																					
189																																																																																																																																																					
200																																																																																																																																																					
201																																																																																																																																																					
202																																																																																																																																																					
202																																																																																																																																																					
210																																																																																																																																																					
213																																																																																																																																																					
213																																																																																																																																																					
216																																																																																																																																																					
216																																																																																																																																																					
221																																																																																																																																																					
221																																																																																																																																																					
221																																																																																																																																																					
221																																																																																																																																																					
225																																																																																																																																																					
225																																																																																																																																																					
225																																																																																																																																																					
225																																																																																																																																																					
227																																																																																																																																																					
227																																																																																																																																																					
227																																																																																																																																																					
229																																																																																																																																																					
229																																																																																																																																																					
229																																																																																																																																																					
231																																																																																																																																																					
231																																																																																																																																																					
236																																																																																																																																																					
236																																																																																																																																																					
240																																																																																																																																																					
241																																																																																																																																																					
242																																																																																																																																																					
248																																																																																																																																																					
248																																																																																																																																																					
250																																																																																																																																																					
271																																																																																																																																																					
287																																																																																																																																																					
287																																																																																																																																																					
287																																																																																																																																																					
287																																																																																																																																																					
287																																																																																																																																																					
287																																																																																																																																																					
287																																																																																																																																																					
287																																																																																																																																																					
287																																																																																																																																																					
293																																																																																																																																																					
293																																																																																																																																																					
293																																																																																																																																																					
293																																																																																																																																																					
295																																																																																																																																																					
295																																																																																																																																																					
296																																																																																																																																																					
296																																																																																																																																																					
297																																																																																																																																																					
297																																																																																																																																																					
300																																																																																																																																																					
300																																																																																																																																																					
300																																																																																																																																																					
300																																																																																																																																																					
300																																																																																																																																																					
300																																																																																																																																																					
301																																																																																																																																																					
301																																																																																																																																																					
301																																																																																																																																																					
302																																																																																																																																																					
302																																																																																																																																																					
303																																																																																																																																																					
304																																																																																																																																																					
304																																																																																																																																																					
304																																																																																																																																																					
304																																																																																																																																																					
305																																																																																																																																																					
305																																																																																																																																																					
306																																																																																																																																																					
307																																																																																																																																																					
307																																																																																																																																																					
307																																																																																																																																																					
307																																																																																																																																																					
307																																																																																																																																																					
308																																																																																																																																																					
311																																																																																																																																																					
311																																																																																																																																																					
312																																																																																																																																																					
312																																																																																																																																																					
312																																																																																																																																																					
313																																																																																																																																																					
313																																																																																																																																																					
313																																																																																																																																																					
314																																																																																																																																																					
314																																																																																																																																																					
314																																																																																																																																																					
314																																																																																																																																																					
315																																																																																																																																																					
315																																																																																																																																																					
315																																																																																																																																																					
315																																																																																																																																																					
315																																																																																																																																																					
